D:\KFC PROJECT\APIFpc\APIFpc\src\main\java\com\ffi\apifpc\dao\ViewDAO.java
D:\KFC PROJECT\APIFpc\APIFpc\src\main\java\com\ffi\apifpc\utils\ConnectionUtils.java
D:\KFC PROJECT\APIFpc\APIFpc\src\main\java\com\ffi\apifpc\IndexController.java
D:\KFC PROJECT\APIFpc\APIFpc\src\main\java\com\ffi\apifpc\model\Department.java
D:\KFC PROJECT\APIFpc\APIFpc\src\main\java\com\ffi\apifpc\dao\impl\MasterDaoImpl.java
D:\KFC PROJECT\APIFpc\APIFpc\src\main\java\com\ffi\apifpc\services\ViewServices.java
D:\KFC PROJECT\APIFpc\APIFpc\src\main\java\com\ffi\apifpc\model\InputForm.java
D:\KFC PROJECT\APIFpc\APIFpc\src\main\java\com\ffi\apifpc\model\InputDetail.java
D:\KFC PROJECT\APIFpc\APIFpc\src\main\java\com\ffi\apifpc\utils\ExcelRptBase.java
D:\KFC PROJECT\APIFpc\APIFpc\src\main\java\com\ffi\apifpc\model\InputHeader.java
D:\KFC PROJECT\APIFpc\APIFpc\src\main\java\com\ffi\apifpc\utils\PdfRptBase.java
D:\KFC PROJECT\APIFpc\APIFpc\src\main\java\com\ffi\apifpc\Config.java
D:\KFC PROJECT\APIFpc\APIFpc\src\main\java\com\ffi\apifpc\services\MasterServices.java
D:\KFC PROJECT\APIFpc\APIFpc\src\main\java\com\ffi\apifpc\utils\XlsRptBase.java
D:\KFC PROJECT\APIFpc\APIFpc\src\main\java\com\ffi\apifpc\utils\DateUtils.java
D:\KFC PROJECT\APIFpc\APIFpc\src\main\java\com\ffi\apifpc\dao\MasterDAO.java
D:\KFC PROJECT\APIFpc\APIFpc\src\main\java\com\ffi\apifpc\model\Budget.java
D:\KFC PROJECT\APIFpc\APIFpc\src\main\java\com\ffi\apifpc\utils\ExcelRptBase_1.java
D:\KFC PROJECT\APIFpc\APIFpc\src\main\java\com\ffi\apifpc\services\ReportServices.java
D:\KFC PROJECT\APIFpc\APIFpc\src\main\java\com\ffi\apifpc\services\StorageService.java
D:\KFC PROJECT\APIFpc\APIFpc\src\main\java\com\ffi\apifpc\Application.java
D:\KFC PROJECT\APIFpc\APIFpc\src\main\java\com\ffi\apifpc\model\WorkShop.java
D:\KFC PROJECT\APIFpc\APIFpc\src\main\java\com\ffi\apifpc\services\GenerateReport.java
D:\KFC PROJECT\APIFpc\APIFpc\src\main\java\com\ffi\apifpc\utils\RptParameter.java
D:\KFC PROJECT\APIFpc\APIFpc\src\main\java\com\ffi\apifpc\dao\impl\ViewDaoImpl.java
D:\KFC PROJECT\APIFpc\APIFpc\src\main\java\com\ffi\apifpc\utils\XlsRptBaseAll.java
D:\KFC PROJECT\APIFpc\APIFpc\src\main\java\com\ffi\apifpc\model\Realisasi.java
